pl\greg\moviedb\entity\Genere.class
pl\greg\moviedb\dao\AbstractDAO.class
pl\greg\moviedb\dao\MovieDAO.class
pl\greg\moviedb\Main.class
pl\greg\moviedb\Util\HibernateUtil.class
pl\greg\moviedb\entity\Movie.class
