C:\Users\RENT\WokspaceInteli\MovieDB\src\main\java\pl\greg\moviedb\Main.java
C:\Users\RENT\WokspaceInteli\MovieDB\src\main\java\pl\greg\moviedb\dao\MovieDAO.java
C:\Users\RENT\WokspaceInteli\MovieDB\src\main\java\pl\greg\moviedb\dao\AbstractDAO.java
C:\Users\RENT\WokspaceInteli\MovieDB\src\main\java\pl\greg\moviedb\entity\Genere.java
C:\Users\RENT\WokspaceInteli\MovieDB\src\main\java\pl\greg\moviedb\entity\Movie.java
C:\Users\RENT\WokspaceInteli\MovieDB\src\main\java\pl\greg\moviedb\Util\HibernateUtil.java
